EESchema Schematic File Version 4
EELAYER 30 0
EELAYER END
$Descr USLetter 11000 8500
encoding utf-8
Sheet 1 1
Title "JLink Adapter"
Date ""
Rev "V1"
Comp "Enginuity inc."
Comment1 ""
Comment2 ""
Comment3 ""
Comment4 ""
$EndDescr
$Comp
L conns_plugs:CONN_01X04 P3
U 1 1 5F5C9EC2
P 8150 2300
F 0 "P3" H 8150 2550 50  0000 C CNN
F 1 "CONN_01X04" H 8200 2050 50  0001 C CNN
F 2 "Connector_PinHeader_2.54mm:PinHeader_1x04_P2.54mm_Vertical" H 8150 2300 60  0001 C CNN
F 3 "" H 8150 2300 60  0000 C CNN
F 4 "CONN_01X04" H 8200 2050 50  0000 C CNN "Val"
	1    8150 2300
	1    0    0    -1  
$EndComp
$Comp
L conns_plugs:CONN_02X04_2.54mm_SHROUDED_70246-0802 P2
U 1 1 5F5CAA41
P 3150 4650
F 0 "P2" H 3150 4900 60  0000 C CNN
F 1 "CONN_02X04_2.54mm_SHROUDED_70246-0802" H 3150 4400 60  0001 C CNN
F 2 "Connector_PinHeader_2.54mm:PinHeader_2x04_P2.54mm_Vertical" H 3150 4400 60  0001 C CNN
F 3 "" H 3150 4400 60  0000 C CNN
F 4 "CONN_02X04" H 3100 4400 47  0000 C CNN "VAL"
F 5 "70246-0802" H 3150 4800 60  0001 C CNN "P/N"
	1    3150 4650
	1    0    0    -1  
$EndComp
$Comp
L dbelib-power:5V #PWR07
U 1 1 5F5CCB55
P 3450 4350
F 0 "#PWR07" H 3450 4450 40  0001 C CNN
F 1 "5V" H 3450 4455 60  0000 C CNN
F 2 "" H 3450 4350 60  0000 C CNN
F 3 "" H 3450 4350 60  0000 C CNN
	1    3450 4350
	1    0    0    -1  
$EndComp
$Comp
L dbelib-power:GND #PWR08
U 1 1 5F5CD173
P 3450 4950
F 0 "#PWR08" H 3450 4950 30  0001 C CNN
F 1 "GND" H 3450 4880 30  0001 C CNN
F 2 "" H 3450 4950 60  0000 C CNN
F 3 "" H 3450 4950 60  0000 C CNN
	1    3450 4950
	1    0    0    -1  
$EndComp
Text Label 7500 2250 0    50   ~ 0
TDI
Wire Wire Line
	7950 2350 7500 2350
Text Label 7500 2350 0    50   ~ 0
SWCLK
$Comp
L dbelib-power:GND #PWR018
U 1 1 5F5D45A3
P 7850 2550
F 0 "#PWR018" H 7850 2550 30  0001 C CNN
F 1 "GND" H 7850 2480 30  0001 C CNN
F 2 "" H 7850 2550 60  0000 C CNN
F 3 "" H 7850 2550 60  0000 C CNN
	1    7850 2550
	1    0    0    -1  
$EndComp
$Comp
L dbelib-power:5V #PWR016
U 1 1 5F5D4A38
P 7850 3750
F 0 "#PWR016" H 7850 3850 40  0001 C CNN
F 1 "5V" H 7850 3855 60  0000 C CNN
F 2 "" H 7850 3750 60  0000 C CNN
F 3 "" H 7850 3750 60  0000 C CNN
	1    7850 3750
	1    0    0    -1  
$EndComp
Wire Wire Line
	7850 3750 7850 3850
$Comp
L eRES_0603_ERJ-3EKF:487 R1
U 1 1 5F5D5638
P 7900 3850
F 0 "R1" V 7950 3900 50  0000 R BNN
F 1 "487" V 8300 3750 50  0000 L BNN
F 2 "Resistor_SMD:R_0603_1608Metric" H 8000 3800 40  0001 L BNN
F 3 "RES SMD 487 OHM 1% 1/10W 0603" H 8000 3925 60  0001 C CNN
F 4 "ERJ-3EKF4870V" H 8125 4200 60  0001 C CNN "P/N"
F 5 "0603" H 7900 3850 50  0001 C CNN "SIZE"
F 6 "1%" H 7900 3850 50  0001 C CNN "TOLERANCE"
F 7 "N" H 7900 3850 50  0001 C CNN "CHECKED"
F 8 "100mW" H 7900 3850 50  0001 C CNN "POWER"
	1    7900 3850
	0    -1   1    0   
$EndComp
Wire Wire Line
	7850 4250 7850 4400
Wire Wire Line
	7850 4800 7850 4900
$Comp
L dbelib-power:GND #PWR017
U 1 1 5F5D771E
P 7850 4900
F 0 "#PWR017" H 7850 4900 30  0001 C CNN
F 1 "GND" H 7850 4830 30  0001 C CNN
F 2 "" H 7850 4900 60  0000 C CNN
F 3 "" H 7850 4900 60  0000 C CNN
	1    7850 4900
	1    0    0    -1  
$EndComp
$Comp
L eIC_PWR:ADP150AUJZ-3.3-R7 U1
U 1 1 5F5D7FC9
P 3750 6450
F 0 "U1" H 3500 6650 50  0000 C CNN
F 1 "ADP150AUJZ-3.3-R7" H 3750 6250 50  0000 C CNN
F 2 "eIC_SOT:TSOT23-5" H 3750 6450 50  0001 C CNN
F 3 "IC REG LINEAR 3.3V 150MA TSOT5" H 3750 6450 50  0001 C CNN
F 4 "ADP150AUJZ-3.3-R7" H 3750 6250 50  0001 C CNN "P/N"
F 5 "SOT23-5" H 3750 6450 50  0001 C CNN "SIZE"
F 6 "N" H 3750 6450 50  0001 C CNN "CHECKED"
F 7 "150mA" H 3750 6450 50  0001 C CNN "CURRENT"
F 8 "3.3V" H 3750 6450 50  0001 C CNN "VOLTAGE"
	1    3750 6450
	1    0    0    -1  
$EndComp
$Comp
L dbelib-power:5V #PWR01
U 1 1 5F5D88C6
P 2550 6250
F 0 "#PWR01" H 2550 6350 40  0001 C CNN
F 1 "5V" H 2550 6355 60  0000 C CNN
F 2 "" H 2550 6250 60  0000 C CNN
F 3 "" H 2550 6250 60  0000 C CNN
	1    2550 6250
	1    0    0    -1  
$EndComp
Wire Wire Line
	3300 6350 3100 6350
Wire Wire Line
	3100 6350 3100 6550
Wire Wire Line
	3100 6550 3300 6550
Wire Wire Line
	3100 6350 2850 6350
Connection ~ 3100 6350
$Comp
L eCAP_0603_M_TAIYO_YUDEN:10u C1
U 1 1 5F5DA742
P 2550 6600
F 0 "C1" H 2625 6750 50  0000 C CNN
F 1 "10u" H 2650 6500 50  0000 C CNN
F 2 "eCAP_SMT:C_0603" H 2600 6600 60  0001 C CNN
F 3 "CAP CER 10UF 6.3V X5R 0603" H 2600 6600 60  0001 C CNN
F 4 "JMK107ABJ106MAHT" H 2550 6600 60  0001 C CNN "P/N"
F 5 "20%" H 2550 6600 60  0001 C CNN "TOLERANCE"
F 6 "6V3" H 2550 6600 60  0001 C CNN "VOLTAGE"
F 7 "0603" H 2550 6600 60  0001 C CNN "SIZE"
F 8 "Y" H 2550 6600 60  0001 C CNN "CHECKED"
F 9 "X5R" H 2550 6600 50  0001 C CNN "TEMP COEFF"
	1    2550 6600
	1    0    0    -1  
$EndComp
$Comp
L eCAP_0201_GRM_Murata:100n C2
U 1 1 5F5DB159
P 2850 6600
F 0 "C2" H 2925 6750 50  0000 C CNN
F 1 "100n" H 3000 6500 50  0000 C CNN
F 2 "eCAP_SMT:C_0603" H 2850 6600 60  0001 C CNN
F 3 "CAP CER 0.1UF 35V X5R 0201" H 2800 6650 60  0001 C CNN
F 4 "GRM033R6YA104KE14D" H 2850 6600 60  0001 C CNN "P/N"
F 5 "0201" H 2850 6600 60  0001 C CNN "SIZE"
F 6 "35V" H 2950 6430 39  0001 C CNN "VOLTAGE"
F 7 "10%" H 3050 6650 60  0001 C CNN "TOLERANCE"
F 8 "X5R" H 3050 6600 60  0001 C CNN "TEMP COEFF"
F 9 "N" H 2950 6650 60  0001 C CNN "CHECKED"
	1    2850 6600
	1    0    0    -1  
$EndComp
$Comp
L eCAP_0603_M_TAIYO_YUDEN:10u C3
U 1 1 5F5DCB39
P 4600 6600
F 0 "C3" H 4675 6750 50  0000 C CNN
F 1 "10u" H 4700 6500 50  0000 C CNN
F 2 "eCAP_SMT:C_0603" H 4650 6600 60  0001 C CNN
F 3 "CAP CER 10UF 6.3V X5R 0603" H 4650 6600 60  0001 C CNN
F 4 "JMK107ABJ106MAHT" H 4600 6600 60  0001 C CNN "P/N"
F 5 "20%" H 4600 6600 60  0001 C CNN "TOLERANCE"
F 6 "6V3" H 4600 6600 60  0001 C CNN "VOLTAGE"
F 7 "0603" H 4600 6600 60  0001 C CNN "SIZE"
F 8 "Y" H 4600 6600 60  0001 C CNN "CHECKED"
F 9 "X5R" H 4600 6600 50  0001 C CNN "TEMP COEFF"
	1    4600 6600
	1    0    0    -1  
$EndComp
$Comp
L eCAP_0201_GRM_Murata:100n C4
U 1 1 5F5DD3C7
P 4900 6600
F 0 "C4" H 4975 6750 50  0000 C CNN
F 1 "100n" H 5050 6500 50  0000 C CNN
F 2 "eCAP_SMT:C_0603" H 4900 6600 60  0001 C CNN
F 3 "CAP CER 0.1UF 35V X5R 0201" H 4850 6650 60  0001 C CNN
F 4 "GRM033R6YA104KE14D" H 4900 6600 60  0001 C CNN "P/N"
F 5 "0201" H 4900 6600 60  0001 C CNN "SIZE"
F 6 "35V" H 5000 6430 39  0001 C CNN "VOLTAGE"
F 7 "10%" H 5100 6650 60  0001 C CNN "TOLERANCE"
F 8 "X5R" H 5100 6600 60  0001 C CNN "TEMP COEFF"
F 9 "N" H 5000 6650 60  0001 C CNN "CHECKED"
	1    4900 6600
	1    0    0    -1  
$EndComp
Wire Wire Line
	2550 6350 2550 6450
Wire Wire Line
	2850 6350 2850 6450
Connection ~ 2850 6350
Wire Wire Line
	2850 6350 2550 6350
$Comp
L dbelib-power:GND #PWR02
U 1 1 5F5DEBD8
P 2550 6800
F 0 "#PWR02" H 2550 6800 30  0001 C CNN
F 1 "GND" H 2550 6730 30  0001 C CNN
F 2 "" H 2550 6800 60  0000 C CNN
F 3 "" H 2550 6800 60  0000 C CNN
	1    2550 6800
	1    0    0    -1  
$EndComp
$Comp
L dbelib-power:GND #PWR04
U 1 1 5F5DF0BA
P 2850 6800
F 0 "#PWR04" H 2850 6800 30  0001 C CNN
F 1 "GND" H 2850 6730 30  0001 C CNN
F 2 "" H 2850 6800 60  0000 C CNN
F 3 "" H 2850 6800 60  0000 C CNN
	1    2850 6800
	1    0    0    -1  
$EndComp
$Comp
L dbelib-power:GND #PWR011
U 1 1 5F5DF22D
P 4600 6800
F 0 "#PWR011" H 4600 6800 30  0001 C CNN
F 1 "GND" H 4600 6730 30  0001 C CNN
F 2 "" H 4600 6800 60  0000 C CNN
F 3 "" H 4600 6800 60  0000 C CNN
	1    4600 6800
	1    0    0    -1  
$EndComp
$Comp
L dbelib-power:GND #PWR013
U 1 1 5F5DF5E0
P 4900 6800
F 0 "#PWR013" H 4900 6800 30  0001 C CNN
F 1 "GND" H 4900 6730 30  0001 C CNN
F 2 "" H 4900 6800 60  0000 C CNN
F 3 "" H 4900 6800 60  0000 C CNN
	1    4900 6800
	1    0    0    -1  
$EndComp
Wire Wire Line
	4900 6700 4900 6800
Wire Wire Line
	4600 6700 4600 6800
Wire Wire Line
	2850 6700 2850 6800
Wire Wire Line
	2550 6700 2550 6800
$Comp
L dbelib-power:GND #PWR010
U 1 1 5F5E1F66
P 4300 6800
F 0 "#PWR010" H 4300 6800 30  0001 C CNN
F 1 "GND" H 4300 6730 30  0001 C CNN
F 2 "" H 4300 6800 60  0000 C CNN
F 3 "" H 4300 6800 60  0000 C CNN
	1    4300 6800
	1    0    0    -1  
$EndComp
Wire Wire Line
	4200 6550 4300 6550
Wire Wire Line
	4300 6550 4300 6800
Wire Wire Line
	4200 6350 4600 6350
Wire Wire Line
	4900 6350 4900 6450
Wire Wire Line
	4600 6350 4600 6450
Connection ~ 4600 6350
Wire Wire Line
	4600 6350 4750 6350
Connection ~ 4900 6350
Text Notes 8200 4800 0    50   ~ 0
R=(5-2.5)V/5mA\n  =500R\n 
Wire Wire Line
	7500 2250 7950 2250
Wire Wire Line
	3000 4500 2750 4500
Wire Wire Line
	3000 4600 2750 4600
Wire Wire Line
	3000 4700 2750 4700
Wire Wire Line
	3300 4600 3500 4600
Wire Wire Line
	3300 4700 3500 4700
Text Label 2750 4500 0    50   ~ 0
RSTn
Text Label 2750 4600 0    50   ~ 0
SWCLK
Text Label 2750 4700 0    50   ~ 0
SWDIO
Text Label 3300 4600 0    50   ~ 0
SCLO
Text Label 3300 4700 0    50   ~ 0
SDAO
Wire Wire Line
	2550 4350 2550 4800
Wire Wire Line
	2550 4800 3000 4800
Text Notes 2750 1700 0    50   ~ 0
JLink Connector
Text Notes 7750 1850 0    50   ~ 0
C2 Interface
Text Notes 2800 4000 0    50   ~ 0
eUnit Connector
Text Notes 7800 3500 0    50   ~ 0
LED
Text Notes 3200 5950 0    50   ~ 0
LDO
$Comp
L eSWITCH:2X1_2.54mm_HEADER-JUMPER SW1
U 1 1 5F6133B6
P 5300 6400
F 0 "SW1" H 5160 6550 50  0000 C CNN
F 1 "2X1_2.54mm_HEADER-JUMPER" H 5300 6400 50  0001 C CNN
F 2 "Connector_PinHeader_2.54mm:PinHeader_1x02_P2.54mm_Vertical" H 5060 6450 60  0001 C CNN
F 3 "" H 5300 6900 60  0000 C CNN
F 4 "2X1 JUMPER" H 5300 6375 50  0000 C CNN "Val"
F 5 "NA" H 5300 6300 60  0001 C CNN "P/N"
	1    5300 6400
	1    0    0    -1  
$EndComp
Wire Wire Line
	5100 6350 4900 6350
Wire Wire Line
	5500 6250 5500 6350
$Comp
L diode:LTL-4231NLC D1
U 1 1 5F617794
P 7850 4600
F 0 "D1" V 7850 4450 50  0000 C CNN
F 1 "LTL-4231NLC" H 7850 4500 50  0001 C CNN
F 2 "LED_SMD:LED_0603_1608Metric" H 7750 4600 50  0001 C CNN
F 3 "DIODE LED GRN 1.9V TH T-1 3mm NON-AEC" H 7750 4700 50  0001 C CNN
F 4 "GREEN" V 7850 4800 50  0000 C CNN "Val"
F 5 "LTL-4231NLC" H 7850 4750 60  0001 C CNN "P/N"
	1    7850 4600
	0    -1   -1   0   
$EndComp
$Comp
L dbelib-power:VCC #PWR06
U 1 1 5F6142E5
P 2550 4350
F 0 "#PWR06" H 2550 4450 40  0001 C CNN
F 1 "VCC" H 2550 4455 60  0000 C CNN
F 2 "" H 2550 4350 60  0000 C CNN
F 3 "" H 2550 4350 60  0000 C CNN
	1    2550 4350
	1    0    0    -1  
$EndComp
$Comp
L dbelib-power:VCC #PWR014
U 1 1 5F615FFA
P 5500 6250
F 0 "#PWR014" H 5500 6350 40  0001 C CNN
F 1 "VCC" H 5500 6355 60  0000 C CNN
F 2 "" H 5500 6250 60  0000 C CNN
F 3 "" H 5500 6250 60  0000 C CNN
	1    5500 6250
	1    0    0    -1  
$EndComp
$Comp
L dbelib-power:3V3 #PWR012
U 1 1 5F616414
P 4750 6250
F 0 "#PWR012" H 4750 6350 40  0001 C CNN
F 1 "3V3" H 4750 6355 60  0000 C CNN
F 2 "" H 4750 6250 60  0000 C CNN
F 3 "" H 4750 6250 60  0000 C CNN
	1    4750 6250
	1    0    0    -1  
$EndComp
Wire Wire Line
	4750 6250 4750 6350
Connection ~ 4750 6350
Wire Wire Line
	4750 6350 4900 6350
Wire Wire Line
	3000 2100 2750 2100
Wire Wire Line
	3000 2200 2750 2200
Wire Wire Line
	3000 2300 2750 2300
Wire Wire Line
	3000 2400 2750 2400
Wire Wire Line
	3000 2500 2750 2500
Wire Wire Line
	3000 2600 2750 2600
Wire Wire Line
	3000 2700 2750 2700
Wire Wire Line
	3000 2800 2750 2800
$Comp
L dbelib-power:GND #PWR09
U 1 1 5F631C31
P 3450 2600
F 0 "#PWR09" H 3450 2600 30  0001 C CNN
F 1 "GND" H 3450 2530 30  0001 C CNN
F 2 "" H 3450 2600 60  0000 C CNN
F 3 "" H 3450 2600 60  0000 C CNN
	1    3450 2600
	1    0    0    -1  
$EndComp
$Comp
L conns_plugs:CONN_2x10 P1
U 1 1 5F619832
P 3150 2400
F 0 "P1" H 3150 2900 60  0000 C CNN
F 1 "CONN_2x10" H 3150 1750 60  0001 C CNN
F 2 "Connector_PinHeader_2.54mm:PinHeader_2x10_P2.54mm_Vertical" H 3150 2400 60  0001 C CNN
F 3 "CONN HEADER VERT 20POS 2.54MM" H 3150 2900 60  0001 C CNN
F 4 "CONN_02X10" H 3200 1800 47  0000 C CNN "Val"
F 5 "CONN HEADER VERT 20POS 2.54MM" H 3150 2800 60  0001 C CNN "P/N"
	1    3150 2400
	-1   0    0    -1  
$EndComp
NoConn ~ 3300 2000
NoConn ~ 3300 2600
NoConn ~ 3300 2700
NoConn ~ 3300 2800
NoConn ~ 3300 2900
$Comp
L dbelib-power:5V #PWR03
U 1 1 5F63E076
P 2550 1950
F 0 "#PWR03" H 2550 2050 40  0001 C CNN
F 1 "5V" H 2550 2055 60  0000 C CNN
F 2 "" H 2550 1950 60  0000 C CNN
F 3 "" H 2550 1950 60  0000 C CNN
	1    2550 1950
	1    0    0    -1  
$EndComp
Text Label 2850 2000 0    50   ~ 0
VTref
Text Label 2750 2100 0    50   ~ 0
nTRST
Text Label 2750 2200 0    50   ~ 0
TDI
Text Label 2750 2300 0    50   ~ 0
SWDIO
Text Label 2750 2400 0    50   ~ 0
SWCLK
Text Label 2750 2500 0    50   ~ 0
RTCK
Text Label 2750 2600 0    50   ~ 0
SWO
Text Label 2750 2700 0    50   ~ 0
RSTn
Text Label 2750 2800 0    50   ~ 0
DBGRQ
Text Label 3000 2900 2    50   ~ 0
5V-SUPPLY
$Comp
L dbelib-power:VCC #PWR05
U 1 1 5F641FFD
P 2750 1950
F 0 "#PWR05" H 2750 2050 40  0001 C CNN
F 1 "VCC" H 2750 2055 60  0000 C CNN
F 2 "" H 2750 1950 60  0000 C CNN
F 3 "" H 2750 1950 60  0000 C CNN
	1    2750 1950
	1    0    0    -1  
$EndComp
$Comp
L dbelib-power:VCC #PWR015
U 1 1 5F64B1A9
P 7850 2100
F 0 "#PWR015" H 7850 2200 40  0001 C CNN
F 1 "VCC" H 7850 2205 60  0000 C CNN
F 2 "" H 7850 2100 60  0000 C CNN
F 3 "" H 7850 2100 60  0000 C CNN
	1    7850 2100
	1    0    0    -1  
$EndComp
Wire Wire Line
	7950 2450 7850 2450
Wire Wire Line
	7850 2450 7850 2550
Wire Wire Line
	7850 2100 7850 2150
Wire Wire Line
	7850 2150 7950 2150
Wire Wire Line
	3300 2100 3450 2100
Wire Wire Line
	3450 2100 3450 2200
Wire Wire Line
	3300 2200 3450 2200
Connection ~ 3450 2200
Wire Wire Line
	3450 2200 3450 2300
Wire Wire Line
	3300 2300 3450 2300
Connection ~ 3450 2300
Wire Wire Line
	3450 2300 3450 2400
Wire Wire Line
	3300 2400 3450 2400
Connection ~ 3450 2400
Wire Wire Line
	3450 2400 3450 2500
Wire Wire Line
	3300 2500 3450 2500
Connection ~ 3450 2500
Wire Wire Line
	3450 2500 3450 2600
Wire Wire Line
	3300 4800 3450 4800
Wire Wire Line
	3450 4800 3450 4950
Wire Wire Line
	3450 4500 3450 4350
Wire Wire Line
	3300 4500 3450 4500
Wire Wire Line
	3000 2000 2750 2000
Wire Wire Line
	2750 2000 2750 1950
Wire Wire Line
	2550 1950 2550 2900
Wire Wire Line
	2550 2900 3000 2900
Wire Wire Line
	2550 6250 2550 6350
Connection ~ 2550 6350
$EndSCHEMATC
