%TF.GenerationSoftware,KiCad,Pcbnew,(5.1.6)-1*%
%TF.CreationDate,2020-09-17T13:17:02-03:00*%
%TF.ProjectId,JLink,4a4c696e-6b2e-46b6-9963-61645f706362,rev?*%
%TF.SameCoordinates,Original*%
%TF.FileFunction,Soldermask,Top*%
%TF.FilePolarity,Negative*%
%FSLAX46Y46*%
G04 Gerber Fmt 4.6, Leading zero omitted, Abs format (unit mm)*
G04 Created by KiCad (PCBNEW (5.1.6)-1) date 2020-09-17 13:17:02*
%MOMM*%
%LPD*%
G01*
G04 APERTURE LIST*
%ADD10R,0.700000X1.320000*%
%ADD11O,1.800000X1.800000*%
%ADD12R,1.800000X1.800000*%
%ADD13R,0.900000X0.850000*%
G04 APERTURE END LIST*
%TO.C,D1*%
G36*
G01*
X157452750Y-88184000D02*
X158015250Y-88184000D01*
G75*
G02*
X158259000Y-88427750I0J-243750D01*
G01*
X158259000Y-88915250D01*
G75*
G02*
X158015250Y-89159000I-243750J0D01*
G01*
X157452750Y-89159000D01*
G75*
G02*
X157209000Y-88915250I0J243750D01*
G01*
X157209000Y-88427750D01*
G75*
G02*
X157452750Y-88184000I243750J0D01*
G01*
G37*
G36*
G01*
X157452750Y-86609000D02*
X158015250Y-86609000D01*
G75*
G02*
X158259000Y-86852750I0J-243750D01*
G01*
X158259000Y-87340250D01*
G75*
G02*
X158015250Y-87584000I-243750J0D01*
G01*
X157452750Y-87584000D01*
G75*
G02*
X157209000Y-87340250I0J243750D01*
G01*
X157209000Y-86852750D01*
G75*
G02*
X157452750Y-86609000I243750J0D01*
G01*
G37*
%TD*%
D10*
%TO.C,U1*%
X156144000Y-104434000D03*
X154244000Y-104434000D03*
X154244000Y-101814000D03*
X155194000Y-101814000D03*
X156144000Y-101814000D03*
%TD*%
D11*
%TO.C,SW1*%
X154686000Y-79502000D03*
D12*
X154686000Y-82042000D03*
%TD*%
%TO.C,R1*%
G36*
G01*
X155494000Y-96547250D02*
X155494000Y-95984750D01*
G75*
G02*
X155737750Y-95741000I243750J0D01*
G01*
X156225250Y-95741000D01*
G75*
G02*
X156469000Y-95984750I0J-243750D01*
G01*
X156469000Y-96547250D01*
G75*
G02*
X156225250Y-96791000I-243750J0D01*
G01*
X155737750Y-96791000D01*
G75*
G02*
X155494000Y-96547250I0J243750D01*
G01*
G37*
G36*
G01*
X153919000Y-96547250D02*
X153919000Y-95984750D01*
G75*
G02*
X154162750Y-95741000I243750J0D01*
G01*
X154650250Y-95741000D01*
G75*
G02*
X154894000Y-95984750I0J-243750D01*
G01*
X154894000Y-96547250D01*
G75*
G02*
X154650250Y-96791000I-243750J0D01*
G01*
X154162750Y-96791000D01*
G75*
G02*
X153919000Y-96547250I0J243750D01*
G01*
G37*
%TD*%
D11*
%TO.C,P3*%
X156972000Y-64262000D03*
X154432000Y-64262000D03*
X151892000Y-64262000D03*
D12*
X149352000Y-64262000D03*
%TD*%
D11*
%TO.C,P2*%
X153416000Y-119126000D03*
X150876000Y-119126000D03*
X153416000Y-116586000D03*
X150876000Y-116586000D03*
X153416000Y-114046000D03*
X150876000Y-114046000D03*
X153416000Y-111506000D03*
D12*
X150876000Y-111506000D03*
%TD*%
D11*
%TO.C,P1*%
X150368000Y-99314000D03*
X147828000Y-99314000D03*
X150368000Y-96774000D03*
X147828000Y-96774000D03*
X150368000Y-94234000D03*
X147828000Y-94234000D03*
X150368000Y-91694000D03*
X147828000Y-91694000D03*
X150368000Y-89154000D03*
X147828000Y-89154000D03*
X150368000Y-86614000D03*
X147828000Y-86614000D03*
X150368000Y-84074000D03*
X147828000Y-84074000D03*
X150368000Y-81534000D03*
X147828000Y-81534000D03*
X150368000Y-78994000D03*
X147828000Y-78994000D03*
X150368000Y-76454000D03*
D12*
X147828000Y-76454000D03*
%TD*%
D13*
%TO.C,C4*%
X154444000Y-94742000D03*
X155944000Y-94742000D03*
%TD*%
%TO.C,C3*%
X154444000Y-93218000D03*
X155944000Y-93218000D03*
%TD*%
%TO.C,C2*%
X154444000Y-97790000D03*
X155944000Y-97790000D03*
%TD*%
%TO.C,C1*%
X154444000Y-99314000D03*
X155944000Y-99314000D03*
%TD*%
M02*
